home_assignment
…
False - ,    -      . , ,        ,        .

       (      )              1   .

    :

mean_a <- 
  h %>%
  group_by(year) %>%
  summarise(mean_area = mean(av_liv_area))

mean_a

## # A tibble: 24 x 2
##    year  mean_area
##    <fct>     <dbl>
##  1 1994       12.2
##  2 1995       12.2
##  3 1996       13.1
##  4 1998       12.8
##  5 2000       13.1
##  6 2001       13.7
##  7 2002       13.7
##  8 2003       14.0
##  9 2004       14.0
## 10 2005       14.1
## # ... with 14 more rows
…
